…
        



## Información sesión


```r
sesion_info <- devtools::session_info()
dplyr::select(
  tibble::as_tibble(sesion_info$packages),
  c(package, loadedversion, source)
)
#> # A tibble: 95 × 3
#>    package    loadedversion source        
#>    <chr>      <chr>         <chr>         
#>  1 arules     1.7-6         CRAN (R 4.1.2)
#>  2 assertthat 0.2.1         CRAN (R 4.0.1)
#>  3 backports  1.4.1         CRAN (R 4.1.2)
#>  4 bit        4.0.4         CRAN (R 4.0.2)
#>  5 bit64      4.0.5         CRAN (R 4.0.2)
#>  6 bookdown   0.33          CRAN (R 4.1.2)
#>  7 broom      0.7.12        CRAN (R 4.1.2)
#>  8 bslib      0.4.2         CRAN (R 4.1.2)
#>  9 cachem     1.0.7         CRAN (R 4.1.2)
#> 10 callr      3.7.3         CRAN (R 4.1.2)
#> # ℹ 85 more rows
```
…
